%YAML 1.1
%TAG !u! tag:unity3d.com,2011:
--- !u!114 &11400000
MonoBehaviour:
  m_ObjectHideFlags: 0
  m_CorrespondingSourceObject: {fileID: 0}
  m_PrefabInstance: {fileID: 0}
  m_PrefabAsset: {fileID: 0}
  m_GameObject: {fileID: 0}
  m_Enabled: 1
  m_EditorHideFlags: 0
  m_Script: {fileID: 11500000, guid: c67fb88df2447ed42bc72034968a5c7d, type: 3}
  m_Name: DataGame000
  m_EditorClassIdentifier: 
  dataSections:
  - {fileID: 11400000, guid: cc65d30151a5dad47b7d3691848ac2ac, type: 2}
  - {fileID: 11400000, guid: 68b131da19417184486a6fd766241796, type: 2}
  - {fileID: 11400000, guid: daa9e31c87553eb438a7001703921885, type: 2}
